{
    "AS_FlexContainer_c13338c8c5f14f5d9f302bcbf9a51d53": {
        "id": "AS_FlexContainer_c13338c8c5f14f5d9f302bcbf9a51d53",
        "type": "ACTION_SEQUENCE",
        "params": [{
            "datatype": "collection",
            "name": "eventobject"
        }, {
            "datatype": "string",
            "name": "x"
        }, {
            "datatype": "string",
            "name": "y"
        }],
        "language": "js",
        "actions": [{
            "id": "ADD_SNIPPET__c88699e8daf3468b8f8581ed13a969d2",
            "type": "ADD_SNIPPET",
            "codeSnippet": "this.selectedCursor=\"right\";\nthis.handler.PinIndicatorIsEnabled(true,this.view.lblSelectedRight,this.view.lblIndicatorRight); \nthis.view.forceLayout();",
            "parentId": null,
            "callbackType": null
        }]
    }
}