{
    "AS_Form_eef1ef9c57284ab5b5bd0e6375baff96": {
        "id": "AS_Form_eef1ef9c57284ab5b5bd0e6375baff96",
        "type": "ACTION_SEQUENCE",
        "params": [{
            "datatype": "collection",
            "name": "eventobject"
        }],
        "contextObj": {
            "name": "frmSimple",
            "type": "forms",
            "platform": null,
            "KUID": "g27e0f9c62794039be7e6eed89debda8"
        },
        "language": "js",
        "actions": [{
            "id": "INVOKE_FUNCTION___g4204649d0b2481884e8b60f919a2a1c",
            "type": "INVOKE_FUNCTION",
            "display": "<>",
            "inputparams": [],
            "parentId": null,
            "callbackType": null,
            "disabled": null,
            "source": "module"
        }]
    }
}