{
    "DNDConfig": null,
    "__parentReadjusting__": false,
    "_height_": {
        "type": "string",
        "value": "90%"
    },
    "_margin_": [
        0,
        0,
        0,
        0
    ],
    "_orientation_": 6,
    "_padding_": [
        0,
        0,
        0,
        0
    ],
    "_percent_": true,
    "_skin_": "s548f4772697460395525528f61cc52b",
    "_width_": {
        "type": "string",
        "value": "10%"
    },
    "allboxes": [],
    "autogrowmode": 0,
    "canUpdateUI": true,
    "centerx": {
        "type": "string",
        "value": "90%"
    },
    "centery": {
        "type": "string",
        "value": "50%"
    },
    "children": [
        "lblIndicatorRight",
        "lblSelectedRight",
        "imgRightSlider"
    ],
    "clipbounds": true,
    "containerweight": 100,
    "enablescrolling": true,
    "id": "flxRight",
    "ide_onTouchEnd": "AS_FlexContainer_acb70c637d6b496fbfc1d5555d13e4e5",
    "ide_onTouchStart": "AS_FlexContainer_c13338c8c5f14f5d9f302bcbf9a51d53",
    "info": null,
    "iscustomlayout": false,
    "isvisible": true,
    "kuid": "jf9b3c40079941bca89ae24f57920f9e",
    "layouttype": 2,
    "name": "kony.ui.FlexContainer",
    "parent": "flxMain",
    "pf": "userwidgetmodel",
    "retaincontentalignment": false,
    "retainflexpositionproperties": false,
    "snapgridsize": 10,
    "snaptogrid": true,
    "wType": "FlexContainer",
    "widgetalignment": 1,
    "zindex": 5
}